<?xml version="1.0" encoding="UTF-8" standalone="no"?>
<svg width="512px" height="512px" viewBox="0 0 512 512" version="1.1" xmlns="http://www.w3.org/2000/svg" xmlns:xlink="http://www.w3.org/1999/xlink">
    <!-- Generator: Sketch 39 (31667) - http://www.bohemiancoding.com/sketch -->
    <title>Farbkonzept</title>
    <desc>Created with Sketch.</desc>
    <defs>
        <linearGradient x1="67.8677733%" y1="13.7338525%" x2="19.7616337%" y2="40.1743361%" id="linearGradient-1">
            <stop stop-color="#0056A5" offset="0%"></stop>
            <stop stop-color="#10921C" offset="30.608078%"></stop>
            <stop stop-color="#10921C" offset="100%"></stop>
        </linearGradient>
        <linearGradient x1="95.371011%" y1="31.1482955%" x2="35.3252777%" y2="89.9230686%" id="linearGradient-2">
            <stop stop-color="#F38A00" offset="0%"></stop>
            <stop stop-color="#10921C" offset="56.2435034%"></stop>
            <stop stop-color="#10921C" offset="100%"></stop>
        </linearGradient>
    </defs>
    <g id="SVortschritt" stroke="none" stroke-width="1" fill="none" fill-rule="evenodd">
        <g id="Farbkonzept">
            <path d="M231.103209,164.938041 C218.416449,154.541273 192.032332,142.572598 183.916427,139.040323 C175.800523,135.508047 166.899342,133.741935 157.212617,133.741935 C151.452943,133.741935 145.758805,134.396051 140.130032,135.704301 C134.50126,137.012551 129.330721,139.10572 124.61826,141.983871 C119.9058,144.862022 115.913358,148.590479 112.640816,153.169355 C109.368274,157.748231 107.339328,163.177388 106.553918,169.456989 C105.244901,178.876391 107.470197,186.07166 113.229871,191.043011 C118.989545,196.014362 126.516279,200.331523 135.810298,203.994624 C145.104318,207.657724 155.183597,211.189947 166.048436,214.591398 C176.913276,217.992849 186.861655,222.702479 195.893871,228.72043 C204.926088,234.738381 211.994673,242.718588 217.099838,252.66129 C222.205004,262.603992 223.579451,275.817122 221.223221,292.301075 C219.128794,307.215128 214.547304,320.232023 207.478613,331.352151 C200.409922,342.472278 191.70509,351.695304 181.363857,359.021505 C171.022624,366.347707 159.437999,371.842276 146.609633,375.505376 C133.781268,379.168477 120.560396,381 106.946621,381 C89.6675989,381 73.4360334,378.121893 58.251438,372.365591 C43.0668426,366.60929 32.6867247,353.79052 23,340.184718 L56.798899,312.070139 C61.773163,321.227891 70.4251895,326.249975 79.4574057,331.352151 C88.489622,336.454327 103.412238,336.258065 114.40798,336.258065 C120.167654,336.258065 125.992692,335.473126 131.883268,333.903226 C137.773843,332.333325 143.271632,329.97851 148.376797,326.83871 C153.481963,323.698909 157.867104,319.708806 161.532351,314.86828 C165.197598,310.027754 167.553793,304.467773 168.601007,298.188172 C169.910023,287.98382 167.684728,280.134436 161.925054,274.639785 C156.16538,269.145134 148.638646,264.500915 139.344626,260.706989 C130.050607,256.913063 119.971328,253.315429 109.106488,249.913978 C98.2416484,246.512528 88.3587195,241.868309 79.4574049,235.981183 C70.5560903,230.094057 63.4875054,222.244673 58.251438,212.432796 C53.0153706,202.620919 51.5754737,189.473201 53.931704,172.989247 C56.026131,158.598494 60.7385209,146.170303 68.0690153,135.704301 C75.3995096,125.238299 84.3661405,116.538565 94.969177,109.604839 C105.572213,102.671112 117.287739,97.5036012 130.116104,94.1021505 C142.944469,90.7006998 155.772641,89 168.601007,89 C183.261995,89 197.202816,91.2239921 210.423886,95.672043 C223.644956,100.120094 234.836882,107.446186 244,117.650538 C244,117.650538 243.78997,175.334809 231.103209,164.938041 Z" id="S" fill="url(#linearGradient-1)"></path>
            <path d="M425.013265,268.595506 L425.013265,308.822531 L507.125624,251 L425.013265,193.177469 L425.013265,232.101124 L86,232.101124 L86,268.595506 L425.013265,268.595506 Z" id="Combined-Shape" fill="#F38A00"></path>
            <path d="M223.800787,174.79373 C218.019115,157.162267 199.191548,145.450901 199.191548,145.450901 L172,127.830387 L211.869677,97.9198858 C211.869677,97.9198858 221.269325,100.165679 231.189886,105.09133 C239.35567,109.145719 248.110251,115.741021 250.223506,118.112875 C259.797549,128.858496 266.295247,134.291807 273.95392,155.698841 C281.612593,177.105874 307.101458,306.070621 307.101458,306.070621 L414.628776,96 L468,96 L316.912345,374 L274.136879,374 C274.136879,374 229.582459,192.425194 223.800787,174.79373 Z" id="V" fill="#0056A5"></path>
            <path d="M424.903136,268.595506 L424.903136,308.97811 L507.015495,251 L424.903136,193.02189 L424.903136,232.101124 L318,232.101124 L318,268.595506 L424.903136,268.595506 Z" id="Combined-Shape" fill="#F38A00"></path>
            <path d="M15.8602215,324.589122 C13.6084577,316.935214 13.7278248,307.882555 14.5161789,288.245877 C15.1890161,271.486544 25.8165609,253.506181 40.1261658,243.740352 C59.5333218,230.495612 83.5266168,232.17468 87.3301543,232.002111 C94.3601845,231.683154 92.6978112,267.605123 87.3301543,268.185352 C81.9624974,268.76558 60.6298469,267.753448 54.9875591,285.436012 C49.3452713,303.118576 57.3399925,312.762634 57.3399925,312.762634 C57.3399925,312.762634 27.1030464,345.648056 23.2341785,340.470139 C19.3653107,335.292221 18.1367011,332.327042 15.8602215,324.589122 Z" id="Path-2" fill="url(#linearGradient-2)"></path>
        </g>
    </g>
</svg>